{
    "count": 367,
    "next": "https://pokeapi.co/api/v2/ability?offset=25&limit=20",
    "previous": "https://pokeapi.co/api/v2/ability?offset=0&limit=5",
    "results": [
        {
            "name": "damp",
            "url": "https://pokeapi.co/api/v2/ability/6/"
        },
        {
            "name": "limber",
            "url": "https://pokeapi.co/api/v2/ability/7/"
        },
        {
            "name": "sand-veil",
            "url": "https://pokeapi.co/api/v2/ability/8/"
        },
        {
            "name": "static",
            "url": "https://pokeapi.co/api/v2/ability/9/"
        },
        {
            "name": "volt-absorb",
            "url": "https://pokeapi.co/api/v2/ability/10/"
        },
        {
            "name": "water-absorb",
            "url": "https://pokeapi.co/api/v2/ability/11/"
        },
        {
            "name": "oblivious",
            "url": "https://pokeapi.co/api/v2/ability/12/"
        },
        {
            "name": "cloud-nine",
            "url": "https://pokeapi.co/api/v2/ability/13/"
        },
        {
            "name": "compound-eyes",
            "url": "https://pokeapi.co/api/v2/ability/14/"
        },
        {
            "name": "insomnia",
            "url": "https://pokeapi.co/api/v2/ability/15/"
        },
        {
            "name": "color-change",
            "url": "https://pokeapi.co/api/v2/ability/16/"
        },
        {
            "name": "immunity",
            "url": "https://pokeapi.co/api/v2/ability/17/"
        },
        {
            "name": "flash-fire",
            "url": "https://pokeapi.co/api/v2/ability/18/"
        },
        {
            "name": "shield-dust",
            "url": "https://pokeapi.co/api/v2/ability/19/"
        },
        {
            "name": "own-tempo",
            "url": "https://pokeapi.co/api/v2/ability/20/"
        },
        {
            "name": "suction-cups",
            "url": "https://pokeapi.co/api/v2/ability/21/"
        },
        {
            "name": "intimidate",
            "url": "https://pokeapi.co/api/v2/ability/22/"
        },
        {
            "name": "shadow-tag",
            "url": "https://pokeapi.co/api/v2/ability/23/"
        },
        {
            "name": "rough-skin",
            "url": "https://pokeapi.co/api/v2/ability/24/"
        },
        {
            "name": "wonder-guard",
            "url": "https://pokeapi.co/api/v2/ability/25/"
        }
    ]
}